[gd_scene load_steps=3 format=2]

[ext_resource path="res://sounds/explode1.ogg" type="AudioStream" id=1]
[ext_resource path="res://objects/AsteroidDestroyed.gd" type="Script" id=2]

[node name="Audio_AsteroidDestroyed" type="AudioStreamPlayer2D"]
stream = ExtResource( 1 )
pitch_scale = 0.5
autoplay = true
bus = "SFX"
script = ExtResource( 2 )

[connection signal="finished" from="." to="." method="_on_Audio_AsteroidDestroyed_finished"]
