[gd_scene load_steps=7 format=2]

[ext_resource path="res://sprites/parts/fighter_drone.png" type="Texture" id=1]
[ext_resource path="res://objects/particles/Thrust.tscn" type="PackedScene" id=2]
[ext_resource path="res://objects/FighterDrone.gd" type="Script" id=3]
[ext_resource path="res://sounds/fire.ogg" type="AudioStream" id=4]
[ext_resource path="res://sounds/metal_hit.ogg" type="AudioStream" id=5]

[sub_resource type="RectangleShape2D" id=1]
extents = Vector2( 3, 5.5 )

[node name="FighterDrone" type="RigidBody2D"]
gravity_scale = 0.0
linear_damp = 0.1
angular_damp = 1.0
script = ExtResource( 3 )
__meta__ = {
"_edit_horizontal_guides_": [  ]
}

[node name="CollisionShape2D" type="CollisionShape2D" parent="."]
position = Vector2( -1, 0 )
shape = SubResource( 1 )

[node name="Sprite" type="Sprite" parent="."]
rotation = 1.5708
scale = Vector2( 0.5, 0.5 )
texture = ExtResource( 1 )

[node name="Particles2D_Thrust_ForwardA" parent="." instance=ExtResource( 2 )]
position = Vector2( -4, -5 )
rotation = 1.5708
z_index = -5

[node name="Particles2D_Thrust_ForwardB" parent="." instance=ExtResource( 2 )]
position = Vector2( -4, 5 )
rotation = 1.5708
z_index = -5

[node name="Position2D_FirepointA" type="Position2D" parent="."]
position = Vector2( 5, -6 )

[node name="Position2D_FirepointB" type="Position2D" parent="."]
position = Vector2( 5, 6 )

[node name="Timer_Fire" type="Timer" parent="."]
wait_time = 0.1
autostart = true

[node name="Timer_Reload" type="Timer" parent="."]
one_shot = true

[node name="Audio_Fire" type="AudioStreamPlayer2D" parent="."]
stream = ExtResource( 4 )
pitch_scale = 1.5
bus = "SFX"

[node name="Audio_Hit" type="AudioStreamPlayer2D" parent="."]
stream = ExtResource( 5 )
bus = "SFX"

[connection signal="body_entered" from="." to="." method="_on_FighterDrone_body_entered"]
[connection signal="timeout" from="Timer_Fire" to="." method="_on_Timer_Fire_timeout"]
[connection signal="timeout" from="Timer_Reload" to="." method="_on_Timer_Reload_timeout"]
