[gd_scene load_steps=4 format=2]

[ext_resource path="res://objects/levels/AsteroidWaveController.gd" type="Script" id=1]
[ext_resource path="res://fonts/tiny.tres" type="DynamicFont" id=2]

[sub_resource type="CanvasItemMaterial" id=1]
blend_mode = 1

[node name="AsteroidWaveController" type="Node"]
script = ExtResource( 1 )

[node name="Timer_NextPhase" type="Timer" parent="."]
wait_time = 30.0
one_shot = true
autostart = true

[node name="Timer_UpdateTimer" type="Timer" parent="."]
autostart = true

[node name="Timer_SpawnAsteroid" type="Timer" parent="."]

[node name="HUD" type="CanvasLayer" parent="."]
scale = Vector2( 2, 2 )
transform = Transform2D( 2, 0, 0, 2, 0, 0 )

[node name="Label_TimeRemaining" type="Label" parent="HUD"]
material = SubResource( 1 )
anchor_right = 1.0
margin_top = 10.0
margin_right = -640.0
margin_bottom = 38.0
custom_fonts/font = ExtResource( 2 )
custom_colors/font_color = Color( 0.721569, 0.890196, 0.721569, 1 )
align = 1
__meta__ = {
"_edit_use_anchors_": false
}

[connection signal="timeout" from="Timer_NextPhase" to="." method="_on_Timer_NextPhase_timeout"]
[connection signal="timeout" from="Timer_UpdateTimer" to="." method="_on_Timer_UpdateTimer_timeout"]
[connection signal="timeout" from="Timer_SpawnAsteroid" to="." method="_on_Timer_SpawnAsteroid_timeout"]
