[gd_scene load_steps=5 format=2]

[ext_resource path="res://fonts/header2.tres" type="DynamicFont" id=1]
[ext_resource path="res://sounds/stage_complete.ogg" type="AudioStream" id=2]
[ext_resource path="res://objects/ui/StageClear.gd" type="Script" id=3]

[sub_resource type="Animation" id=1]
resource_name = "stage_clear"
length = 7.0
tracks/0/type = "value"
tracks/0/path = NodePath("Label_StageClear:percent_visible")
tracks/0/interp = 1
tracks/0/loop_wrap = true
tracks/0/imported = false
tracks/0/enabled = true
tracks/0/keys = {
"times": PoolRealArray( 0, 2 ),
"transitions": PoolRealArray( 1, 1 ),
"update": 0,
"values": [ 0.0, 1.0 ]
}
tracks/1/type = "value"
tracks/1/path = NodePath("Darken:modulate")
tracks/1/interp = 1
tracks/1/loop_wrap = true
tracks/1/imported = false
tracks/1/enabled = true
tracks/1/keys = {
"times": PoolRealArray( 0, 2.1 ),
"transitions": PoolRealArray( 1, 1 ),
"update": 0,
"values": [ Color( 1, 1, 1, 0 ), Color( 1, 1, 1, 1 ) ]
}
tracks/2/type = "audio"
tracks/2/path = NodePath("Audio_StageClear")
tracks/2/interp = 1
tracks/2/loop_wrap = true
tracks/2/imported = false
tracks/2/enabled = true
tracks/2/keys = {
"clips": [ {
"end_offset": 0.0,
"start_offset": 0.0,
"stream": ExtResource( 2 )
} ],
"times": PoolRealArray( 0 )
}
tracks/3/type = "value"
tracks/3/path = NodePath("Blackout:modulate")
tracks/3/interp = 1
tracks/3/loop_wrap = true
tracks/3/imported = false
tracks/3/enabled = true
tracks/3/keys = {
"times": PoolRealArray( 0, 5.5, 6.5 ),
"transitions": PoolRealArray( 1, 1, 1 ),
"update": 0,
"values": [ Color( 1, 1, 1, 0 ), Color( 1, 1, 1, 0 ), Color( 1, 1, 1, 1 ) ]
}

[node name="StageClear" type="CanvasLayer"]
pause_mode = 2
script = ExtResource( 3 )

[node name="Darken" type="ColorRect" parent="."]
modulate = Color( 1, 1, 1, 0 )
anchor_right = 1.0
anchor_bottom = 1.0
color = Color( 0, 0, 0, 0.501961 )
__meta__ = {
"_edit_use_anchors_": false
}

[node name="Label_StageClear" type="Label" parent="."]
anchor_left = 0.5
anchor_top = 0.5
anchor_right = 0.5
anchor_bottom = 0.5
margin_left = -640.0
margin_top = -48.0
margin_right = 640.0
margin_bottom = 49.0
custom_fonts/font = ExtResource( 1 )
custom_colors/font_color = Color( 0.721569, 0.890196, 0.721569, 1 )
text = "STAGE CLEAR"
align = 1
valign = 1
percent_visible = 0.0
__meta__ = {
"_edit_use_anchors_": false
}

[node name="Blackout" type="ColorRect" parent="."]
modulate = Color( 1, 1, 1, 0 )
anchor_right = 1.0
anchor_bottom = 1.0
color = Color( 0, 0, 0, 1 )
__meta__ = {
"_edit_use_anchors_": false
}

[node name="Audio_StageClear" type="AudioStreamPlayer" parent="."]
stream = ExtResource( 2 )
bus = "UI"

[node name="AnimationPlayer" type="AnimationPlayer" parent="."]
anims/stage_clear = SubResource( 1 )

[connection signal="animation_finished" from="AnimationPlayer" to="." method="_on_AnimationPlayer_animation_finished"]
