[gd_scene load_steps=9 format=2]

[ext_resource path="res://objects/particles/Explosion.gd" type="Script" id=1]
[ext_resource path="res://sounds/explode2.ogg" type="AudioStream" id=2]
[ext_resource path="res://sprites/glow.png" type="Texture" id=3]

[sub_resource type="CanvasItemMaterial" id=1]
blend_mode = 1

[sub_resource type="Gradient" id=2]
offsets = PoolRealArray( 0, 0.292035, 0.668142, 0.977876 )
colors = PoolColorArray( 0.960177, 0.960177, 0.960177, 1, 0.878431, 0.545098, 0.47451, 1, 0.635294, 0.196078, 0.305882, 1, 0, 0, 0, 1 )

[sub_resource type="GradientTexture" id=3]
gradient = SubResource( 2 )

[sub_resource type="ParticlesMaterial" id=4]
emission_shape = 1
emission_sphere_radius = 8.0
flag_disable_z = true
direction = Vector3( 0, 0, 0 )
spread = 180.0
gravity = Vector3( 0, 0, 0 )
initial_velocity = 64.0
initial_velocity_random = 0.75
orbit_velocity = 0.0
orbit_velocity_random = 0.0
damping = 0.1
damping_random = 1.0
color_ramp = SubResource( 3 )

[sub_resource type="CanvasItemMaterial" id=5]
blend_mode = 1

[node name="Explosion" type="Node2D"]
script = ExtResource( 1 )

[node name="Audio_Explosion" type="AudioStreamPlayer2D" parent="."]
stream = ExtResource( 2 )
bus = "SFX"

[node name="Particles2D" type="Particles2D" parent="."]
material = SubResource( 1 )
emitting = false
amount = 64
lifetime = 2.0
one_shot = true
explosiveness = 1.0
randomness = 0.5
visibility_rect = Rect2( -256, -256, 512, 512 )
process_material = SubResource( 4 )

[node name="Sprite_Glow" type="Sprite" parent="."]
modulate = Color( 0.933333, 0.764706, 0.603922, 1 )
material = SubResource( 5 )
texture = ExtResource( 3 )

[node name="Tween" type="Tween" parent="."]
